startb,stopb,loads,speed,crossed,startl,endl,feet,toil
2L,2R,0,30,0,43,25,-18,0
15L,15R,2,18,22,25,19.9,-5.1,1100
13L,13R,2,14,30,19.9,16,-3.9,1500
10L,10R,2,14,42,16,12.1,-3.9,2100
8L,8R,2,14,50,12.1,8.2,-3.9,2500
2L,2R,0,10,0,8.2,0,-8.2,0
